{
  "name": "accessibility_new",
  "do": "",
  "dont": "",
  "tags": [
    "accessibility",
    "accessible",
    "body",
    "handicap",
    "help",
    "human",
    "person"
  ],
  "category": [
    "action"
  ],
  "type": "static",
  "hasOutlined": true,
  "label": "None",
  "date": "30/11/2020"
}