{
  "name": "access_alarm",
  "do": "",
  "dont": "",
  "tags": [
    "access",
    "notification",
    "alert",
    "alarm",
    "countdown",
    "clock",
    "time",
    "bell"
  ],
  "category": [
    "device"
  ],
  "type": "static",
  "hasOutlined": true,
  "label": "None",
  "date": "30/11/2020"
}