{
  "name": "adb",
  "do": "",
  "dont": "",
  "tags": [
    "Android Debug Bridge"
  ],
  "category": [
    "notification"
  ],
  "type": "static",
  "hasOutlined": true,
  "label": "None",
  "date": "30/11/2020"
}