{
  "name": "add_to_photos",
  "do": "",
  "dont": "",
  "tags": [
    "image",
    "picture",
    "snapshot",
    "add",
    "photo",
    "photography"
  ],
  "category": [
    "image"
  ],
  "type": "static",
  "hasOutlined": true,
  "label": "None",
  "date": "30/11/2020"
}