{
  "name": "add_to_home_screen",
  "do": "",
  "dont": "",
  "tags": [
    "Android",
    "OS",
    "add",
    "arrow",
    "device",
    "hardware",
    "homescreen",
    "iOS",
    "mobile",
    "phone",
    "tablet",
    "up"
  ],
  "category": [
    "device"
  ],
  "type": "static",
  "hasOutlined": true,
  "label": "None",
  "date": "30/11/2020"
}