{
  "name": "airline_seat_recline_extra",
  "do": "",
  "dont": "",
  "tags": [
    "plane",
    "airplane",
    "chair"
  ],
  "category": [
    "notification"
  ],
  "type": "static",
  "hasOutlined": true,
  "label": "None",
  "date": "30/11/2020"
}