{
  "name": "airplanemode_inactive",
  "do": "",
  "dont": "",
  "tags": [
    "mode",
    "airplanemode",
    "flight",
    "inactive",
    "airplane",
    "disabled",
    "signal",
    "off"
  ],
  "category": [
    "device"
  ],
  "type": "static",
  "hasOutlined": true,
  "label": "None",
  "date": "30/11/2020"
}