{
  "name": "align_horizontal_right",
  "do": "",
  "dont": "",
  "tags": [
    "line up",
    "position",
    "place"
  ],
  "category": [
    "editor"
  ],
  "type": "static",
  "hasOutlined": true,
  "label": "None",
  "date": "30/11/2020"
}