{
  "name": "all_inbox",
  "do": "",
  "dont": "",
  "tags": [
    "Inbox",
    "all",
    "delivery",
    "email",
    "letter",
    "mail",
    "post",
    "send"
  ],
  "category": [
    "action"
  ],
  "type": "static",
  "hasOutlined": true,
  "label": "None",
  "date": "30/11/2020"
}