{
  "name": "alternate_email",
  "do": "",
  "dont": "",
  "tags": [
    "Email",
    "address",
    "alternate",
    "contact"
  ],
  "category": [
    "communication"
  ],
  "type": "static",
  "hasOutlined": true,
  "label": "None",
  "date": "30/11/2020"
}