{
  "name": "anchor",
  "do": "",
  "dont": "",
  "tags": [
    "ship",
    "sea",
    "boat",
    "marine"
  ],
  "category": [
    "action"
  ],
  "type": "static",
  "hasOutlined": true,
  "label": "None",
  "date": "30/11/2020"
}