{
  "name": "apps",
  "do": "",
  "dont": "",
  "tags": [
    "applications",
    "function",
    "program"
  ],
  "category": [
    "navigation"
  ],
  "type": "static",
  "hasOutlined": true,
  "label": "None",
  "date": "30/11/2020"
}