{
  "name": "arrow_downward",
  "do": "",
  "dont": "",
  "tags": [
    "direction",
    "down",
    "downwards",
    "dash"
  ],
  "category": [
    "navigation"
  ],
  "type": "static",
  "hasOutlined": true,
  "label": "None",
  "date": "30/11/2020"
}