{
  "name": "article",
  "do": "",
  "dont": "",
  "tags": [
    "article",
    "doc",
    "document",
    "text",
    "writing"
  ],
  "category": [
    "action"
  ],
  "type": "static",
  "hasOutlined": true,
  "label": "None",
  "date": "30/11/2020"
}