{
  "name": "assessment",
  "do": "",
  "dont": "",
  "tags": [
    "analytics",
    "assessment",
    "bar",
    "measure",
    "metrics",
    "tracking",
    "bars",
    "graph"
  ],
  "category": [
    "action"
  ],
  "type": "static",
  "hasOutlined": true,
  "label": "None",
  "date": "30/11/2020"
}