{
  "name": "baby_changing_station",
  "do": "",
  "dont": "",
  "tags": [
    "changing table",
    "infant",
    "child",
    "newborn"
  ],
  "category": [
    "places"
  ],
  "type": "static",
  "hasOutlined": true,
  "label": "None",
  "date": "30/11/2020"
}