{
  "name": "batch_prediction",
  "do": "",
  "dont": "",
  "tags": [
    "forecast",
    "projection",
    "prognosis",
    "prognostic"
  ],
  "category": [
    "action"
  ],
  "type": "static",
  "hasOutlined": true,
  "label": "None",
  "date": "30/11/2020"
}