{
  "name": "battery_charging_20",
  "do": "",
  "dont": "",
  "tags": [
    "charge",
    "mobile",
    "power",
    "cell"
  ],
  "category": [
    "device"
  ],
  "type": "static",
  "hasOutlined": true,
  "label": "None",
  "date": "30/11/2020"
}