{
  "name": "bedtime",
  "do": "",
  "dont": "",
  "tags": [
    "snoozle",
    "sleep",
    "slumbertime",
    "night"
  ],
  "category": [
    "image"
  ],
  "type": "static",
  "hasOutlined": true,
  "label": "None",
  "date": "30/11/2020"
}