{
  "name": "brush",
  "do": "",
  "dont": "",
  "tags": [
    "pencil",
    "paintbrush",
    "watercolor"
  ],
  "category": [
    "image"
  ],
  "type": "static",
  "hasOutlined": true,
  "label": "None",
  "date": "30/11/2020"
}