{
  "name": "call_missed_outgoing",
  "do": "",
  "dont": "",
  "tags": [
    "Call",
    "outgoing",
    "arrow",
    "missed",
    "mobile",
    "device"
  ],
  "category": [
    "communication"
  ],
  "type": "static",
  "hasOutlined": true,
  "label": "None",
  "date": "30/11/2020"
}