{
  "name": "casino",
  "do": "",
  "dont": "",
  "tags": [
    "dice",
    "game",
    "die"
  ],
  "category": [
    "places"
  ],
  "type": "static",
  "hasOutlined": true,
  "label": "None",
  "date": "30/11/2020"
}