{
  "name": "cast_for_education",
  "do": "",
  "dont": "",
  "tags": [
    "airplay",
    "cap",
    "cast",
    "chrome",
    "classroom",
    "connect",
    "desktop",
    "device",
    "education",
    "for",
    "graduation",
    "hardware",
    "hat",
    "learning",
    "monitor",
    "school",
    "screencast",
    "stream",
    "television",
    "tv",
    "wireless"
  ],
  "category": [
    "hardware"
  ],
  "type": "static",
  "hasOutlined": true,
  "label": "None",
  "date": "30/11/2020"
}