{
  "name": "cast_connected",
  "do": "",
  "dont": "",
  "tags": [
    "stream",
    "deliver",
    "transmit",
    "external device",
    "send",
    "signal",
    "connection",
    "connect"
  ],
  "category": [
    "hardware"
  ],
  "type": "static",
  "hasOutlined": true,
  "label": "None",
  "date": "30/11/2020"
}