{
  "name": "change_history",
  "do": "",
  "dont": "",
  "tags": [
    "shape",
    "change",
    "history",
    "triangle"
  ],
  "category": [
    "action"
  ],
  "type": "static",
  "hasOutlined": true,
  "label": "None",
  "date": "30/11/2020"
}