{
  "name": "close_fullscreen",
  "do": "",
  "dont": "",
  "tags": [
    "minimize"
  ],
  "category": [
    "action"
  ],
  "type": "static",
  "hasOutlined": true,
  "label": "None",
  "date": "30/11/2020"
}