{
  "name": "cloud_upload",
  "do": "",
  "dont": "",
  "tags": [
    "cloud",
    "transfer",
    "excange",
    "send",
    "server",
    "storage",
    "remote"
  ],
  "category": [
    "file"
  ],
  "type": "static",
  "hasOutlined": true,
  "label": "None",
  "date": "30/11/2020"
}