{
  "name": "cloud_circle",
  "do": "",
  "dont": "",
  "tags": [
    "cloud",
    "server",
    "storage",
    "remote",
    "circle",
    "round"
  ],
  "category": [
    "file"
  ],
  "type": "static",
  "hasOutlined": true,
  "label": "None",
  "date": "30/11/2020"
}