{
  "name": "collections_bookmark",
  "do": "",
  "dont": "",
  "tags": [
    "photography",
    "photo",
    "image",
    "cam",
    "camcorder",
    "shutter",
    "album"
  ],
  "category": [
    "image"
  ],
  "type": "static",
  "hasOutlined": true,
  "label": "None",
  "date": "30/11/2020"
}