{
  "name": "compare",
  "do": "",
  "dont": "",
  "tags": [
    "photography",
    "photo",
    "image",
    "analyze",
    "analyise",
    "contrast",
    "match"
  ],
  "category": [
    "image"
  ],
  "type": "static",
  "hasOutlined": true,
  "label": "None",
  "date": "30/11/2020"
}