{
  "name": "construction",
  "do": "",
  "dont": "",
  "tags": [
    "build",
    "construction",
    "equipment",
    "fix",
    "hammer",
    "improvement",
    "industrial",
    "industry",
    "repair",
    "tools",
    "wrench"
  ],
  "category": [
    "social"
  ],
  "type": "static",
  "hasOutlined": true,
  "label": "None",
  "date": "30/11/2020"
}