{
  "name": "corporate_fare",
  "do": "",
  "dont": "",
  "tags": [
    "price",
    "tariff",
    "ticket"
  ],
  "category": [
    "places"
  ],
  "type": "static",
  "hasOutlined": true,
  "label": "None",
  "date": "30/11/2020"
}