{
  "name": "create_new_folder",
  "do": "",
  "dont": "",
  "tags": [
    "folder",
    "file",
    "case",
    "data",
    "directory",
    "documents",
    "repository"
  ],
  "category": [
    "file"
  ],
  "type": "static",
  "hasOutlined": true,
  "label": "None",
  "date": "30/11/2020"
}