{
  "name": "crop_din",
  "do": "",
  "dont": "",
  "tags": [
    "photography",
    "photo",
    "image",
    "cut",
    "reduce"
  ],
  "category": [
    "image"
  ],
  "type": "static",
  "hasOutlined": true,
  "label": "None",
  "date": "30/11/2020"
}