{
  "name": "directions_car",
  "do": "",
  "dont": "",
  "tags": [
    "automobile",
    "cars",
    "maps",
    "public",
    "car",
    "direction",
    "transportation",
    "vehicle"
  ],
  "category": [
    "maps"
  ],
  "type": "static",
  "hasOutlined": true,
  "label": "None",
  "date": "30/11/2020"
}