{
  "name": "do_not_disturb",
  "do": "",
  "dont": "",
  "tags": [
    "stop",
    "agitate",
    "distract"
  ],
  "category": [
    "action"
  ],
  "type": "static",
  "hasOutlined": true,
  "label": "None",
  "date": "30/11/2020"
}