{
  "name": "domain",
  "do": "",
  "dont": "",
  "tags": [
    "web",
    "website",
    "internet",
    "www"
  ],
  "category": [
    "social"
  ],
  "type": "static",
  "hasOutlined": true,
  "label": "None",
  "date": "30/11/2020"
}