{
  "name": "edit",
  "do": "",
  "dont": "",
  "tags": [
    "pen",
    "change",
    "modify",
    "publish"
  ],
  "category": [
    "image"
  ],
  "type": "static",
  "hasOutlined": true,
  "label": "None",
  "date": "30/11/2020"
}