{
  "name": "edit_road",
  "do": "",
  "dont": "",
  "tags": [
    "edit",
    "location",
    "pen",
    "pencil",
    "road",
    "street",
    "change"
  ],
  "category": [
    "maps"
  ],
  "type": "static",
  "hasOutlined": true,
  "label": "None",
  "date": "30/11/2020"
}