{
  "name": "electrical_services",
  "do": "",
  "dont": "",
  "tags": [
    "charging",
    "plug",
    "electricity"
  ],
  "category": [
    "maps"
  ],
  "type": "static",
  "hasOutlined": true,
  "label": "None",
  "date": "30/11/2020"
}