{
  "name": "electric_scooter",
  "do": "",
  "dont": "",
  "tags": [
    "automobile",
    "bike",
    "car",
    "cars",
    "maps",
    "scooter",
    "transportation",
    "vehicle",
    "vespa"
  ],
  "category": [
    "maps"
  ],
  "type": "static",
  "hasOutlined": true,
  "label": "None",
  "date": "30/11/2020"
}