{
  "name": "emoji_objects",
  "do": "",
  "dont": "",
  "tags": [
    "bulb",
    "creative",
    "emoji",
    "idea",
    "light",
    "objects",
    "solution",
    "thinking"
  ],
  "category": [
    "social"
  ],
  "type": "static",
  "hasOutlined": true,
  "label": "None",
  "date": "30/11/2020"
}