{
  "name": "emoji_nature",
  "do": "",
  "dont": "",
  "tags": [
    "animal",
    "bee",
    "bug",
    "daisy",
    "emoji",
    "flower",
    "insect",
    "ladybug",
    "nature",
    "petals",
    "spring",
    "summer"
  ],
  "category": [
    "social"
  ],
  "type": "static",
  "hasOutlined": true,
  "label": "None",
  "date": "30/11/2020"
}