{
  "name": "equalizer",
  "do": "",
  "dont": "",
  "tags": [
    "volume",
    "music",
    "static",
    "sound",
    "noise",
    "adjustment",
    "Equalizer"
  ],
  "category": [
    "av"
  ],
  "type": "static",
  "hasOutlined": true,
  "label": "None",
  "date": "30/11/2020"
}