{
  "name": "escalator_warning",
  "do": "",
  "dont": "",
  "tags": [
    "caution",
    "staircase",
    "stairway"
  ],
  "category": [
    "places"
  ],
  "type": "static",
  "hasOutlined": true,
  "label": "None",
  "date": "30/11/2020"
}