{
  "name": "euro",
  "do": "",
  "dont": "",
  "tags": [
    "bill",
    "card",
    "cash",
    "coin",
    "commerce",
    "credit",
    "currency",
    "dollars",
    "euro",
    "euros",
    "money",
    "online",
    "pay",
    "payment",
    "symbol"
  ],
  "category": [
    "image"
  ],
  "type": "static",
  "hasOutlined": true,
  "label": "None",
  "date": "30/11/2020"
}