{
  "name": "event_available",
  "do": "",
  "dont": "",
  "tags": [
    "calendar",
    "appointment",
    "date",
    "free",
    "vacant"
  ],
  "category": [
    "notification"
  ],
  "type": "static",
  "hasOutlined": true,
  "label": "None",
  "date": "30/11/2020"
}