{
  "name": "exposure_neg_1",
  "do": "",
  "dont": "",
  "tags": [
    "photography",
    "photo",
    "image",
    "expose",
    "lens",
    "light",
    "negative"
  ],
  "category": [
    "image"
  ],
  "type": "static",
  "hasOutlined": true,
  "label": "None",
  "date": "30/11/2020"
}