{
  "name": "fiber_pin",
  "do": "",
  "dont": "",
  "tags": [
    "symbol",
    "character",
    "pin",
    "Fiber",
    "letter",
    "alphabet",
    "text",
    "type",
    "font",
    "network"
  ],
  "category": [
    "av"
  ],
  "type": "static",
  "hasOutlined": true,
  "label": "None",
  "date": "30/11/2020"
}