{
  "name": "filter_vintage",
  "do": "",
  "dont": "",
  "tags": [
    "photography",
    "photo",
    "image",
    "style",
    "custom",
    "old",
    "classic"
  ],
  "category": [
    "image"
  ],
  "type": "static",
  "hasOutlined": true,
  "label": "None",
  "date": "30/11/2020"
}