{
  "name": "follow_the_signs",
  "do": "",
  "dont": "",
  "tags": [
    "arrow",
    "directions"
  ],
  "category": [
    "social"
  ],
  "type": "static",
  "hasOutlined": true,
  "label": "None",
  "date": "30/11/2020"
}