{
  "name": "format_strikethrough",
  "do": "",
  "dont": "",
  "tags": [
    "editor",
    "symbol",
    "edit",
    "format",
    "alphabet",
    "type",
    "editing",
    "character",
    "size",
    "letter",
    "writing",
    "doc",
    "sheet",
    "style",
    "strikethrough",
    "text",
    "font",
    "speadsheet"
  ],
  "category": [
    "editor"
  ],
  "type": "static",
  "hasOutlined": true,
  "label": "None",
  "date": "30/11/2020"
}