{
  "name": "format_align_left",
  "do": "",
  "dont": "",
  "tags": [
    "editor",
    "edit",
    "writing",
    "doc",
    "sheet",
    "text",
    "align",
    "alignment",
    "type",
    "editing",
    "speadsheet"
  ],
  "category": [
    "editor"
  ],
  "type": "static",
  "hasOutlined": true,
  "label": "None",
  "date": "30/11/2020"
}