{
  "name": "forum",
  "do": "",
  "dont": "",
  "tags": [
    "hub",
    "bubble",
    "speech",
    "talk",
    "community",
    "conversation",
    "Forum"
  ],
  "category": [
    "communication"
  ],
  "type": "static",
  "hasOutlined": true,
  "label": "None",
  "date": "30/11/2020"
}