{
  "name": "forward_30",
  "do": "",
  "dont": "",
  "tags": [
    "symbol",
    "controls",
    "arrow",
    "forward",
    "arrows",
    "control",
    "video",
    "number",
    "music",
    "30",
    "Fast",
    "10",
    "digit"
  ],
  "category": [
    "av"
  ],
  "type": "static",
  "hasOutlined": true,
  "label": "None",
  "date": "30/11/2020"
}