{
  "name": "forward_to_inbox",
  "do": "",
  "dont": "",
  "tags": [
    "email",
    "send to"
  ],
  "category": [
    "communication"
  ],
  "type": "static",
  "hasOutlined": true,
  "label": "None",
  "date": "30/11/2020"
}