{
  "name": "headset",
  "do": "",
  "dont": "",
  "tags": [
    "audio",
    "music",
    "sound",
    "conference",
    "listen",
    "input"
  ],
  "category": [
    "hardware"
  ],
  "type": "static",
  "hasOutlined": true,
  "label": "None",
  "date": "30/11/2020"
}