{
  "name": "help_outline",
  "do": "",
  "dont": "",
  "tags": [
    "help",
    "symbol",
    "outline",
    "alert",
    "information",
    "question mark",
    "support",
    "?",
    "announcement",
    "info"
  ],
  "category": [
    "action"
  ],
  "type": "static",
  "hasOutlined": true,
  "label": "None",
  "date": "30/11/2020"
}