{
  "name": "highlight_off",
  "do": "",
  "dont": "",
  "tags": [
    "highlight",
    "stop",
    "x",
    "focus",
    "circle",
    "click",
    "close",
    "off",
    "target"
  ],
  "category": [
    "action"
  ],
  "type": "static",
  "hasOutlined": true,
  "label": "None",
  "date": "30/11/2020"
}