{
  "name": "highlight_alt",
  "do": "",
  "dont": "",
  "tags": [
    "arrow",
    "box",
    "click",
    "draw",
    "focus",
    "highlight",
    "pointer",
    "target"
  ],
  "category": [
    "action"
  ],
  "type": "static",
  "hasOutlined": true,
  "label": "None",
  "date": "30/11/2020"
}