{
  "name": "horizontal_rule",
  "do": "",
  "dont": "",
  "tags": [
    "guide",
    "line"
  ],
  "category": [
    "editor"
  ],
  "type": "static",
  "hasOutlined": true,
  "label": "None",
  "date": "30/11/2020"
}