{
  "name": "how_to_reg",
  "do": "",
  "dont": "",
  "tags": [
    "account",
    "ballot",
    "check",
    "election",
    "face",
    "human",
    "people",
    "person",
    "poll",
    "profile",
    "register",
    "registration",
    "user",
    "vote"
  ],
  "category": [
    "content"
  ],
  "type": "static",
  "hasOutlined": true,
  "label": "None",
  "date": "30/11/2020"
}