{
  "name": "http",
  "do": "",
  "dont": "",
  "tags": [
    "symbol",
    "character",
    "website",
    "transfer",
    "letter",
    "http",
    "alphabet",
    "text",
    "type",
    "url",
    "font"
  ],
  "category": [
    "action"
  ],
  "type": "static",
  "hasOutlined": true,
  "label": "None",
  "date": "30/11/2020"
}