{
  "name": "important_devices",
  "do": "",
  "dont": "",
  "tags": [
    "OS",
    "star",
    "mobile",
    "monitor",
    "iOS",
    "Android",
    "important",
    "tablet",
    "desktop",
    "phone",
    "web",
    "device",
    "hardware"
  ],
  "category": [
    "action"
  ],
  "type": "static",
  "hasOutlined": true,
  "label": "None",
  "date": "30/11/2020"
}