{
  "name": "insert_drive_file",
  "do": "",
  "dont": "",
  "tags": [
    "file",
    "slide",
    "format",
    "doc",
    "insert",
    "sheet",
    "drive"
  ],
  "category": [
    "editor"
  ],
  "type": "static",
  "hasOutlined": true,
  "label": "None",
  "date": "30/11/2020"
}