{
  "name": "insert_link",
  "do": "",
  "dont": "",
  "tags": [
    "add",
    "file",
    "mail",
    "link",
    "attach",
    "media",
    "clip"
  ],
  "category": [
    "editor"
  ],
  "type": "static",
  "hasOutlined": true,
  "label": "None",
  "date": "30/11/2020"
}