{
  "name": "integration_instructions",
  "do": "",
  "dont": "",
  "tags": [
    "brackets",
    "clipboard",
    "code",
    "develop",
    "developer",
    "doc",
    "document",
    "engineer",
    "engineering",
    "instructions",
    "integration"
  ],
  "category": [
    "action"
  ],
  "type": "static",
  "hasOutlined": true,
  "label": "None",
  "date": "30/11/2020"
}