{
  "name": "keyboard_capslock",
  "do": "",
  "dont": "",
  "tags": [
    "writing",
    "words",
    "type",
    "key",
    "letter",
    "words",
    "lock",
    "capital",
    "block"
  ],
  "category": [
    "hardware"
  ],
  "type": "static",
  "hasOutlined": true,
  "label": "None",
  "date": "30/11/2020"
}