{
  "name": "leaderboard",
  "do": "",
  "dont": "",
  "tags": [
    "chart",
    "bar",
    "rank",
    "scoreboard"
  ],
  "category": [
    "action"
  ],
  "type": "static",
  "hasOutlined": true,
  "label": "None",
  "date": "30/11/2020"
}