{
  "name": "local_florist",
  "do": "",
  "dont": "",
  "tags": [
    "shop",
    "florist",
    "local",
    "flower"
  ],
  "category": [
    "maps"
  ],
  "type": "static",
  "hasOutlined": true,
  "label": "None",
  "date": "30/11/2020"
}