{
  "name": "local_shipping",
  "do": "",
  "dont": "",
  "tags": [
    "parcel",
    "package",
    "mail",
    "maps",
    "stamp",
    "office",
    "shpping",
    "transportation",
    "vehicle",
    "automobile",
    "cars",
    "post",
    "car",
    "deliverey",
    "letter",
    "postal",
    "send",
    "shopping"
  ],
  "category": [
    "maps"
  ],
  "type": "static",
  "hasOutlined": true,
  "label": "None",
  "date": "30/11/2020"
}