{
  "name": "local_post_office",
  "do": "",
  "dont": "",
  "tags": [
    "parcel",
    "package",
    "mail",
    "post",
    "deliverey",
    "letter",
    "stamp",
    "office",
    "postal",
    "send",
    "shpping"
  ],
  "category": [
    "maps"
  ],
  "type": "static",
  "hasOutlined": true,
  "label": "None",
  "date": "30/11/2020"
}