{
  "name": "medical_services",
  "do": "",
  "dont": "",
  "tags": [
    "docto",
    "health",
    "emergency"
  ],
  "category": [
    "maps"
  ],
  "type": "static",
  "hasOutlined": true,
  "label": "None",
  "date": "30/11/2020"
}