{
  "name": "mediation",
  "do": "",
  "dont": "",
  "tags": [
    "alternative",
    "compromise",
    "mediation",
    "negotiation",
    "party",
    "structure"
  ],
  "category": [
    "action"
  ],
  "type": "static",
  "hasOutlined": true,
  "label": "None",
  "date": "30/11/2020"
}