{
  "name": "miscellaneous_services",
  "do": "",
  "dont": "",
  "tags": [
    "setting",
    "configuration"
  ],
  "category": [
    "maps"
  ],
  "type": "static",
  "hasOutlined": true,
  "label": "None",
  "date": "30/11/2020"
}