{
  "name": "mms",
  "do": "",
  "dont": "",
  "tags": [
    "Multimedia Messaging Service",
    "image",
    "message",
    "media",
    "text"
  ],
  "category": [
    "notification"
  ],
  "type": "static",
  "hasOutlined": true,
  "label": "None",
  "date": "30/11/2020"
}