{
  "name": "motion_photos_pause",
  "do": "",
  "dont": "",
  "tags": [
    "animation",
    "circle",
    "disabled",
    "enabled",
    "motion",
    "off",
    "on",
    "photos",
    "play",
    "slash",
    "video"
  ],
  "category": [
    "image"
  ],
  "type": "static",
  "hasOutlined": true,
  "label": "None",
  "date": "30/11/2020"
}