{
  "name": "multiple_stop",
  "do": "",
  "dont": "",
  "tags": [
    "various",
    "halt"
  ],
  "category": [
    "maps"
  ],
  "type": "static",
  "hasOutlined": true,
  "label": "None",
  "date": "30/11/2020"
}