{
  "name": "near_me_disabled",
  "do": "",
  "dont": "",
  "tags": [
    "map",
    "location"
  ],
  "category": [
    "maps"
  ],
  "type": "static",
  "hasOutlined": true,
  "label": "None",
  "date": "30/11/2020"
}