{
  "name": "next_plan",
  "do": "",
  "dont": "",
  "tags": [
    "arrow",
    "following"
  ],
  "category": [
    "action"
  ],
  "type": "static",
  "hasOutlined": true,
  "label": "None",
  "date": "30/11/2020"
}