{
  "name": "no_backpack",
  "do": "",
  "dont": "",
  "tags": [
    "rucksack"
  ],
  "category": [
    "places"
  ],
  "type": "static",
  "hasOutlined": true,
  "label": "None",
  "date": "30/11/2020"
}