{
  "name": "no_transfer",
  "do": "",
  "dont": "",
  "tags": [
    "van",
    "commute",
    "transport",
    "disabled",
    "not available",
    "unavailable"
  ],
  "category": [
    "maps"
  ],
  "type": "static",
  "hasOutlined": true,
  "label": "None",
  "date": "30/11/2020"
}