{
  "name": "note",
  "do": "",
  "dont": "",
  "tags": [
    "bookmark",
    "paper",
    "Note",
    "message",
    "mark"
  ],
  "category": [
    "av"
  ],
  "type": "static",
  "hasOutlined": true,
  "label": "None",
  "date": "30/11/2020"
}