{
  "name": "notifications_paused",
  "do": "",
  "dont": "",
  "tags": [
    "bell",
    "alert",
    "notification",
    "alarm",
    "ring"
  ],
  "category": [
    "social"
  ],
  "type": "static",
  "hasOutlined": true,
  "label": "None",
  "date": "30/11/2020"
}