{
  "name": "offline_bolt",
  "do": "",
  "dont": "",
  "tags": [
    "bolt",
    "circle",
    "flash",
    "lightning",
    "spark",
    "ray",
    "electric"
  ],
  "category": [
    "action"
  ],
  "type": "static",
  "hasOutlined": true,
  "label": "None",
  "date": "30/11/2020"
}