{
  "name": "panorama_fish_eye",
  "do": "",
  "dont": "",
  "tags": [
    "image",
    "perspective",
    "ratio",
    "photography",
    "photo"
  ],
  "category": [
    "image"
  ],
  "type": "static",
  "hasOutlined": true,
  "label": "None",
  "date": "30/11/2020"
}