{
  "name": "pause_circle_outline",
  "do": "",
  "dont": "",
  "tags": [
    "Pause",
    "controls",
    "music",
    "control",
    "video"
  ],
  "category": [
    "av"
  ],
  "type": "static",
  "hasOutlined": true,
  "label": "None",
  "date": "30/11/2020"
}