{
  "name": "person_remove",
  "do": "",
  "dont": "",
  "tags": [
    "account",
    "delete",
    "face",
    "human",
    "minus",
    "people",
    "person",
    "profile",
    "remove",
    "unfriend",
    "user"
  ],
  "category": [
    "social"
  ],
  "type": "static",
  "hasOutlined": true,
  "label": "None",
  "date": "30/11/2020"
}