{
  "name": "person_outline",
  "do": "",
  "dont": "",
  "tags": [
    "user",
    "avatar",
    "person",
    "profile"
  ],
  "category": [
    "roles"
  ],
  "type": "static",
  "hasOutlined": true,
  "label": "None",
  "date": "30/11/2020"
}