{
  "name": "pest_control_rodent",
  "do": "",
  "dont": "",
  "tags": [
    "rodent",
    "mouse",
    "rat",
    "mice"
  ],
  "category": [
    "maps"
  ],
  "type": "static",
  "hasOutlined": true,
  "label": "None",
  "date": "30/11/2020"
}