{
  "name": "phone_locked",
  "do": "",
  "dont": "",
  "tags": [
    "mobile",
    "smartphone",
    "call",
    "communication"
  ],
  "category": [
    "notification"
  ],
  "type": "static",
  "hasOutlined": true,
  "label": "None",
  "date": "30/11/2020"
}