{
  "name": "photo_album",
  "do": "",
  "dont": "",
  "tags": [
    "photography",
    "image",
    "cam",
    "camera"
  ],
  "category": [
    "image"
  ],
  "type": "static",
  "hasOutlined": true,
  "label": "None",
  "date": "30/11/2020"
}