{
  "name": "photo_size_select_small",
  "do": "",
  "dont": "",
  "tags": [
    "photography",
    "image",
    "custom",
    "resize",
    "edit"
  ],
  "category": [
    "image"
  ],
  "type": "static",
  "hasOutlined": true,
  "label": "None",
  "date": "30/11/2020"
}