{
  "name": "print_disabled",
  "do": "",
  "dont": "",
  "tags": [
    "Print",
    "disabled",
    "enabled",
    "feed",
    "off",
    "on",
    "paper",
    "printer",
    "slash"
  ],
  "category": [
    "communication"
  ],
  "type": "static",
  "hasOutlined": true,
  "label": "None",
  "date": "30/11/2020"
}