{
  "name": "receipt_long",
  "do": "",
  "dont": "",
  "tags": [
    "bill",
    "check",
    "document",
    "list",
    "paper",
    "paperwork",
    "receipt",
    "record",
    "store",
    "transaction"
  ],
  "category": [
    "image"
  ],
  "type": "static",
  "hasOutlined": true,
  "label": "None",
  "date": "30/11/2020"
}