{
  "name": "redeem",
  "do": "",
  "dont": "",
  "tags": [
    "gift",
    "giftcard",
    "certificate",
    "bill",
    "pay",
    "dollars",
    "commerce",
    "cart",
    "money",
    "online",
    "currency",
    "payment",
    "redeem",
    "credit",
    "present",
    "cash",
    "card",
    "coin",
    "shopping"
  ],
  "category": [
    "action"
  ],
  "type": "static",
  "hasOutlined": true,
  "label": "None",
  "date": "30/11/2020"
}