{
  "name": "remove_circle_outline",
  "do": "",
  "dont": "",
  "tags": [
    "can",
    "minus",
    "negative",
    "block",
    "circle",
    "delete",
    "remove",
    "substract",
    "trash"
  ],
  "category": [
    "content"
  ],
  "type": "static",
  "hasOutlined": true,
  "label": "None",
  "date": "30/11/2020"
}