{
  "name": "restore_page",
  "do": "",
  "dont": "",
  "tags": [
    "rotate",
    "paper",
    "restore",
    "arrow",
    "refresh",
    "page"
  ],
  "category": [
    "action"
  ],
  "type": "static",
  "hasOutlined": true,
  "label": "None",
  "date": "30/11/2020"
}