{
  "name": "restore",
  "do": "",
  "dont": "",
  "tags": [
    "rotate",
    "restore",
    "arrow",
    "back",
    "refresh",
    "clock",
    "history",
    "time",
    "reverse",
    "backwards"
  ],
  "category": [
    "action"
  ],
  "type": "static",
  "hasOutlined": true,
  "label": "None",
  "date": "30/11/2020"
}