{
  "name": "room_preferences",
  "do": "",
  "dont": "",
  "tags": [
    "setting",
    "cog",
    "gear",
    "door",
    "room",
    "entrance",
    "entry",
    "exit"
  ],
  "category": [
    "places"
  ],
  "type": "static",
  "hasOutlined": true,
  "label": "None",
  "date": "30/11/2020"
}