{
  "name": "schedule",
  "do": "",
  "dont": "",
  "tags": [
    "calendar",
    "date",
    "schedule",
    "save",
    "clock",
    "time",
    "mark"
  ],
  "category": [
    "action"
  ],
  "type": "static",
  "hasOutlined": true,
  "label": "None",
  "date": "30/11/2020"
}