{
  "name": "school",
  "do": "",
  "dont": "",
  "tags": [
    "education",
    "study",
    "learning",
    "student"
  ],
  "category": [
    "social"
  ],
  "type": "static",
  "hasOutlined": true,
  "label": "None",
  "date": "30/11/2020"
}