{
  "name": "sentiment_dissatisfied",
  "do": "",
  "dont": "",
  "tags": [
    "unhappy",
    "emoji",
    "feedback",
    "angry",
    "sad"
  ],
  "category": [
    "social"
  ],
  "type": "static",
  "hasOutlined": true,
  "label": "None",
  "date": "30/11/2020"
}