{
  "name": "settings_input_component",
  "do": "",
  "dont": "",
  "tags": [
    "input",
    "settings",
    "component",
    "connectivity",
    "connection",
    "plug",
    "points"
  ],
  "category": [
    "action"
  ],
  "type": "static",
  "hasOutlined": true,
  "label": "None",
  "date": "30/11/2020"
}