{
  "name": "settings_applications",
  "do": "",
  "dont": "",
  "tags": [
    "settings",
    "application",
    "service",
    "save",
    "details",
    "information",
    "personal",
    "info"
  ],
  "category": [
    "action"
  ],
  "type": "static",
  "hasOutlined": true,
  "label": "None",
  "date": "30/11/2020"
}