{
  "name": "shopping_cart",
  "do": "",
  "dont": "",
  "tags": [
    "add",
    "buy",
    "bill",
    "pay",
    "dollars",
    "commerce",
    "cart",
    "money",
    "online",
    "currency",
    "payment",
    "credit",
    "cash",
    "checkout",
    "card",
    "coin",
    "shopping"
  ],
  "category": [
    "action"
  ],
  "type": "static",
  "hasOutlined": true,
  "label": "None",
  "date": "30/11/2020"
}