{
  "name": "signal_cellular_no_sim",
  "do": "",
  "dont": "",
  "tags": [
    "wifi",
    "celluar",
    "data",
    "mobile",
    "cell",
    "enabled",
    "off",
    "speed",
    "network",
    "phone",
    "sim",
    "disabled",
    "slash",
    "wireless",
    "signal",
    "internet",
    "on"
  ],
  "category": [
    "device"
  ],
  "type": "static",
  "hasOutlined": true,
  "label": "None",
  "date": "30/11/2020"
}