{
  "name": "source",
  "do": "",
  "dont": "",
  "tags": [
    "script",
    "resource",
    "program",
    "data"
  ],
  "category": [
    "action"
  ],
  "type": "static",
  "hasOutlined": true,
  "label": "None",
  "date": "30/11/2020"
}