{
  "name": "speed",
  "do": "",
  "dont": "",
  "tags": [
    "Slow",
    "arrow",
    "control",
    "controls",
    "fast",
    "internet",
    "motion",
    "music",
    "play",
    "speed",
    "video"
  ],
  "category": [
    "av"
  ],
  "type": "static",
  "hasOutlined": true,
  "label": "None",
  "date": "30/11/2020"
}