{
  "name": "sports_football",
  "do": "",
  "dont": "",
  "tags": [
    "athlete",
    "athletic",
    "ball",
    "entertainment",
    "exercise",
    "football",
    "game",
    "hobby",
    "social",
    "sports"
  ],
  "category": [
    "social"
  ],
  "type": "static",
  "hasOutlined": true,
  "label": "None",
  "date": "30/11/2020"
}