{
  "name": "subscript",
  "do": "",
  "dont": "",
  "tags": [
    "index",
    "type",
    "format",
    "math",
    "text",
    "figure",
    "symbol",
    "down"
  ],
  "category": [
    "editor"
  ],
  "type": "static",
  "hasOutlined": true,
  "label": "None",
  "date": "30/11/2020"
}