{
  "name": "subtitles",
  "do": "",
  "dont": "",
  "tags": [
    "Cc",
    "Subtitle",
    "accessible",
    "subtitles",
    "accessibility",
    "caption",
    "language",
    "translate"
  ],
  "category": [
    "av"
  ],
  "type": "static",
  "hasOutlined": true,
  "label": "None",
  "date": "30/11/2020"
}