{
  "name": "supervisor_account",
  "do": "",
  "dont": "",
  "tags": [
    "profile",
    "control",
    "avatar",
    "people",
    "face",
    "supervised",
    "person",
    "human",
    "parental control",
    "user",
    "account",
    "parental",
    "supervisor",
    "parents"
  ],
  "category": [
    "roles"
  ],
  "type": "static",
  "hasOutlined": true,
  "label": "None",
  "date": "30/11/2020"
}