{
  "name": "surround_sound",
  "do": "",
  "dont": "",
  "tags": [
    "system",
    "speaker",
    "volumn",
    "Sound",
    "circle",
    "surround"
  ],
  "category": [
    "av"
  ],
  "type": "static",
  "hasOutlined": true,
  "label": "None",
  "date": "30/11/2020"
}