{
  "name": "tag_faces",
  "do": "",
  "dont": "",
  "tags": [
    "camera",
    "setting",
    "photo",
    "face recognition",
    "detection"
  ],
  "category": [
    "image"
  ],
  "type": "static",
  "hasOutlined": true,
  "label": "None",
  "date": "30/11/2020"
}