{
  "name": "toc",
  "do": "",
  "dont": "",
  "tags": [
    "stacked",
    "format",
    "reorder",
    "titles",
    "lines",
    "list",
    "title",
    "content",
    "table",
    "order"
  ],
  "category": [
    "action"
  ],
  "type": "static",
  "hasOutlined": true,
  "label": "None",
  "date": "30/11/2020"
}