{
  "name": "today",
  "do": "",
  "dont": "",
  "tags": [
    "calendar",
    "date",
    "remember",
    "week",
    "month",
    "reminder",
    "today",
    "range",
    "event",
    "day",
    "mark"
  ],
  "category": [
    "action"
  ],
  "type": "static",
  "hasOutlined": true,
  "label": "None",
  "date": "30/11/2020"
}