{
  "name": "tour",
  "do": "",
  "dont": "",
  "tags": [
    "destination",
    "flag",
    "places",
    "tour",
    "travel",
    "visit"
  ],
  "category": [
    "action"
  ],
  "type": "static",
  "hasOutlined": true,
  "label": "None",
  "date": "30/11/2020"
}