{
  "name": "translate",
  "do": "",
  "dont": "",
  "tags": [
    "speaking",
    "speech",
    "translator",
    "words",
    "language",
    "translate"
  ],
  "category": [
    "action"
  ],
  "type": "static",
  "hasOutlined": true,
  "label": "None",
  "date": "30/11/2020"
}