{
  "name": "turned_in_not",
  "do": "",
  "dont": "",
  "tags": [
    "remember",
    "bookmark",
    "not",
    "outline",
    "turned",
    "in",
    "save"
  ],
  "category": [
    "action"
  ],
  "type": "static",
  "hasOutlined": true,
  "label": "None",
  "date": "30/11/2020"
}