{
  "name": "tv",
  "do": "",
  "dont": "",
  "tags": [
    "television",
    "watch",
    "tube",
    "screen"
  ],
  "category": [
    "device"
  ],
  "type": "static",
  "hasOutlined": true,
  "label": "None",
  "date": "30/11/2020"
}