{
  "name": "upgrade",
  "do": "",
  "dont": "",
  "tags": [
    "boost",
    "arrow",
    "elevate",
    "promote",
    "up",
    "enhance",
    "increase"
  ],
  "category": [
    "action"
  ],
  "type": "static",
  "hasOutlined": true,
  "label": "None",
  "date": "30/11/2020"
}