{
  "name": "verified_user",
  "do": "",
  "dont": "",
  "tags": [
    "shield",
    "security",
    "audit",
    "checkmark",
    "verified",
    "certified",
    "check",
    "user"
  ],
  "category": [
    "action"
  ],
  "type": "static",
  "hasOutlined": true,
  "label": "None",
  "date": "30/11/2020"
}