{
  "name": "video_settings",
  "do": "",
  "dont": "",
  "tags": [
    "Video",
    "camera",
    "collection",
    "gear",
    "play",
    "screen",
    "setting",
    "settings"
  ],
  "category": [
    "av"
  ],
  "type": "static",
  "hasOutlined": true,
  "label": "None",
  "date": "30/11/2020"
}