{
  "name": "view_sidebar",
  "do": "",
  "dont": "",
  "tags": [
    "menu",
    "navigation",
    "on",
    "open",
    "enable"
  ],
  "category": [
    "action"
  ],
  "type": "static",
  "hasOutlined": true,
  "label": "None",
  "date": "30/11/2020"
}