{
  "name": "view_headline",
  "do": "",
  "dont": "",
  "tags": [
    "paragraph",
    "view",
    "website",
    "format",
    "text",
    "headline"
  ],
  "category": [
    "action"
  ],
  "type": "static",
  "hasOutlined": true,
  "label": "None",
  "date": "30/11/2020"
}