{
  "name": "waves",
  "do": "",
  "dont": "",
  "tags": [
    "beach",
    "ocean",
    "pool",
    "sea",
    "swim",
    "water",
    "wave",
    "waves"
  ],
  "category": [
    "content"
  ],
  "type": "static",
  "hasOutlined": true,
  "label": "None",
  "date": "30/11/2020"
}