{
  "name": "wb_iridescent",
  "do": "",
  "dont": "",
  "tags": [
    "photo",
    "image",
    "settings",
    "camera"
  ],
  "category": [
    "image"
  ],
  "type": "static",
  "hasOutlined": true,
  "label": "None",
  "date": "30/11/2020"
}