{
  "name": "west",
  "do": "",
  "dont": "",
  "tags": [
    "arrow",
    "left"
  ],
  "category": [
    "navigation"
  ],
  "type": "static",
  "hasOutlined": true,
  "label": "None",
  "date": "30/11/2020"
}