{
  "name": "wifi_lock",
  "do": "",
  "dont": "",
  "tags": [
    "wifi",
    "celluar",
    "data",
    "phone",
    "mobile",
    "lock",
    "wireless",
    "cell",
    "internet",
    "speed",
    "network"
  ],
  "category": [
    "device"
  ],
  "type": "static",
  "hasOutlined": true,
  "label": "None",
  "date": "30/11/2020"
}