{
  "name": "wifi",
  "do": "",
  "dont": "",
  "tags": [
    "internet",
    "wireless",
    "network",
    "signal",
    "communication"
  ],
  "category": [
    "notification"
  ],
  "type": "static",
  "hasOutlined": true,
  "label": "None",
  "date": "30/11/2020"
}