{
  "name": "application_window",
  "do": "<ul><li>Use this icon to represent an application window, like a browser or GUI.</li></ul>",
  "dont": "<ul><li>Don't use it for terminal, for this you should use the terminal icon.</li></ul>",
  "tags": [
    "browser window",
    "GUI",
    "interface",
    "graphical user interface"
  ],
  "category": "virtualization",
  "type": "static",
  "label": "EOS",
  "date": "30/11/2020"
}