{
  "name": "config_map",
  "do": "<ul><li>Use it for configuration map</li></ul>",
  "dont": "<ul><li>Use it for configuration file.</li></ul>",
  "tags": [
    "configuration",
    "kubernetes",
    "data"
  ],
  "category": "virtualization",
  "type": "static",
  "label": "EOS",
  "date": "30/11/2020"
}