{
  "name": "terminal",
  "do": "<ul><li>Use this icon to let the user interact with the terminal from your application.</li><li>Use this icon to  execute commands or to take the user to your command line interface.</li></ul>",
  "dont": "<ul><li>Don't use it to represent code or code snippets.</li></ul>",
  "tags": [
    "terminal",
    "command line interface",
    "cli"
  ],
  "category": "virtualization",
  "type": "static",
  "label": "EOS",
  "date": "30/11/2020"
}